# Object Export From Tinkercad Server 2015

mtllib obj.mtl

o obj_0
v -60 		-42 		43
v -60 		-42 		0
v -60 		-22 		0
v -60 		-22 		43
v -87 		-22 		43
v -87 		-22 		0
v -87 		-42 		0
v -87 		-42 		43
# 8 vertices

g group_0_16768282

usemtl color_16768282
s 0

f 1 	2 	3
f 1 	3 	4
f 5 	6 	7
f 5 	7 	8
f 4 	5 	8
f 4 	8 	1
f 2 	7 	6
f 2 	6 	3
f 4 	3 	6
f 4 	6 	5
f 8 	7 	2
f 8 	2 	1
# 12 faces

 #end of obj_0

