# Object Export From Tinkercad Server 2015

mtllib obj.mtl

o obj_0
v -1 		-39 		50
v -1 		-39 		0
v -1 		-19 		0
v -1 		-19 		50
v -29 		-19 		50
v -29 		-19 		0
v -29 		-39 		0
v -29 		-39 		50
# 8 vertices

g group_0_4634441

usemtl color_4634441
s 0

f 1 	2 	3
f 1 	3 	4
f 5 	6 	7
f 5 	7 	8
f 4 	5 	8
f 4 	8 	1
f 2 	7 	6
f 2 	6 	3
f 8 	7 	2
f 8 	2 	1
f 4 	3 	6
f 4 	6 	5
# 12 faces

 #end of obj_0

